Project 1: Wrangling, Exploration, Visualization
…
Wrangling

library(lubridate)
date_new <- as.Date(paste(big_clean_UFO$date, "-01", sep = ""))
big_clean_UFO <- big_clean_UFO %>% mutate(season = lubridate::quarter(date)) %>% 
    mutate(season = case_when(season == 1 ~ "Winter", season == 
        2 ~ "Spring", season == 3 ~ "Summer", season == 4 ~ "Fall")) %>% 
    separate(date, into = c("year", "month", "day")) %>% select(-c("year", 
    "day", "city"))
big_clean_UFO %>% group_by(state, season, paratype) %>% summarise(mean_lo = mean(longitude), 
    sd_lo = sd(longitude), mean_la = mean(latitude), sd_la = sd(latitude), 
    var_lola = var(longitude, latitude, na.rm = T), max_lo = max(longitude), 
    max_la = max(latitude), min_lo = min(longitude), min_la = min(latitude))

## # A tibble: 168 x 12
## # Groups:   state, season [168]
##    state season paratype mean_lo   sd_lo mean_la   sd_la var_lola max_lo max_la
##    <chr> <chr>  <chr>      <dbl>   <dbl>   <dbl>   <dbl>    <dbl>  <dbl>  <dbl>
##  1 AB    Summer UFO       -114.   0.513     53.2  3.00   -1.54    -114.    55.3
##  2 AK    Winter UFO       -149.   0.0553    60.6  0.820   0.0453  -149.    61.2
##  3 AL    Fall   UFO        -86.8 NA         33.5 NA      NA        -86.8   33.5
##  4 AL    Spring UFO        -86.6  0.821     32.9  1.16    0.225    -85.1   34.0
##  5 AL    Winter UFO        -88.2  0.151     31.2  0.733   0.0872   -87.9   32.4
##  6 AR    Spring UFO        -93.4  1.51      36.0  0.0811 -0.122    -90.7   36.0
##  7 AR    Summer UFO        -94.3 NA         35.9 NA      NA        -94.3   35.9
##  8 AR    Winter UFO        -93.6  0.696     35.6  0.583  -0.406    -93.1   36.0
##  9 AZ    Fall   UFO       -112.   0.0988    33.4  0.0526 -0.00520 -112.    33.4
## 10 AZ    Spring UFO       -112.   1.18      33.5  0.963  -1.08    -111.    35.1
## #  with 158 more rows, and 2 more variables: min_lo <dbl>, min_la <dbl>
…
